org\example\grpc\GreetingServiceGrpc$GreetingServiceMethodDescriptorSupplier.class
org\example\grpc\GreetingServiceOuterClass$HelloResponse$Builder.class
org\example\grpc\GreetingServiceOuterClass.class
org\example\grpc\GreetingServiceGrpc$GreetingServiceStub.class
org\example\grpc\GreetingServiceOuterClass$1.class
org\example\grpc\GreetingServiceOuterClass$HelloRequest.class
org\example\grpc\GreetingServiceOuterClass$HelloResponseOrBuilder.class
org\example\grpc\GreetingServiceOuterClass$HelloRequestOrBuilder.class
org\example\grpc\GreetingServiceGrpc$GreetingServiceFutureStub.class
org\example\grpc\GreetingServiceGrpc$MethodHandlers.class
org\example\grpc\GreetingServiceOuterClass$HelloResponse$1.class
org\example\grpc\GreetingServiceGrpc$1.class
org\example\grpc\GreetingServiceGrpc$GreetingServiceBlockingStub.class
org\example\grpc\GreetingServiceOuterClass$HelloResponse.class
org\example\grpc\GreetingServiceGrpc$GreetingServiceFileDescriptorSupplier.class
org\example\App.class
org\example\grpc\GreetingServiceOuterClass$HelloRequest$Builder.class
org\example\grpc\GreetingServiceGrpc$GreetingServiceImplBase.class
org\example\grpc\GreetingServiceOuterClass$HelloRequest$1.class
org\example\grpc\GreetingServiceGrpc$GreetingServiceBaseDescriptorSupplier.class
org\example\grpc\GreetingServiceGrpc.class
